{
  "Exporter": {
    "template_path": [
      ".",
      "/Users/vivek.menon/anaconda3/lib/python3.5/site-packages/jupyter_contrib_nbextensions/templates",
      "/Users/v/.anaconda/lib/python3.6/site-packages/jupyter_contrib_nbextensions/templates"
    ],
    "preprocessors": [
      "jupyter_contrib_nbextensions.nbconvert_support.CodeFoldingPreprocessor",
      "jupyter_contrib_nbextensions.nbconvert_support.PyMarkdownPreprocessor"
    ]
  },
  "version": 1
}